[
    {
    "title": "Keynote 4",
    "start": "2022-07-08T09:30:00",
    "end": "2022-07-08T10:20:00",
    "description": "Retrieval and Validation of Land Surface Temperature"
},
    {
    "title": "Coffee break",
    "start": "2022-07-08T10:20:00",
    "end": "2022-07-08T10:40:00"
},
    {
    "title": "Session 1-7",
    "start": "2022-07-08T10:40:00",
    "end": "2022-07-08T12:20:00",
    "description": "Biomedical II"
},
    {
    "title": "Session 2-7",
    "start": "2022-07-08T10:40:00",
    "end": "2022-07-08T12:20:00",
    "description": "NDT V"
},
    {
    "title": "Awards Ceremony",
    "start": "2022-07-08T12:20:00",
    "end": "2022-07-08T12:30:00"
},
    {
    "title": "Closing Ceremony",
    "start": "2022-07-08T12:30:00",
    "end": "2022-07-08T12:40:00"
},
    {
    "title": "Lunch",
    "start": "2022-07-08T12:40:00",
    "end": "2022-07-08T14:00:00"
},
    {
    "title": "Transit to Technical Visits",
    "start": "2022-07-08T14:00:00",
    "end": "2022-07-08T15:00:00"
},
    {
    "title": "Technical Visits",
    "start": "2022-07-08T15:00:00",
    "end": "2022-07-08T17:30:00",
    "description": "Limited places available at registration desk! <br><br>Either <br><ul><li>Sense-City at Université Gustave Eiffel or</li><li>OASIS and CESAM at Université Paris-Est Créteil</li></ul><br>More informations <a href='https://qirt2022.sciencesconf.org/page/technical_visits'>here</a>"
},
    {
    "title": "Registration Desk <br> 09:00-12:00",
    "start": "2022-07-08T09:00:00",
    "end": "2022-07-08T12:00:00",
    "allDay": true
}
]
